{
  "meta": {
    "limit": 20,
    "next": "/integracao/api/v2/orcamento_cliente_item/?format=json&limit=20&offset=20",
    "offset": 0,
    "previous": null,
    "total_count": 15820
  },
  "objects": [
    {
      "cd_acabamento": 115781,
      "cd_componente": 489773,
      "cd_orcamento_cliente": 510681,
      "cd_produto": 2046505,
      "cd_usuario_cadastro": 85263,
      "cd_usuario_modificacao": 85263,
      "codigo_montagem": 0,
      "comprimento": "150.00",
      "datahora_cadastro": "2024-10-16T07:46:16",
      "datahora_cancelamento": null,
      "datahora_modificacao": "2024-10-16T07:46:16",
      "espessura_altura": "50.00",
      "guid": null,
      "id": 59917332,
      "largura_profundidade": "150.00",
      "quantidade": 2,
      "referencia": "26462",
      "valor": 6.0
    },
    {
      "cd_acabamento": 115964,
      "cd_componente": 489492,
      "cd_orcamento_cliente": 510681,
      "cd_produto": 2046514,
      "cd_usuario_cadastro": 85263,
      "cd_usuario_modificacao": 85263,
      "codigo_montagem": 0,
      "comprimento": "150.00",
      "datahora_cadastro": "2024-10-16T07:46:16",
      "datahora_cancelamento": null,
      "datahora_modificacao": "2024-10-16T07:46:16",
      "espessura_altura": "50.00",
      "guid": null,
      "id": 59917334,
      "largura_profundidade": "150.00",
      "quantidade": 5,
      "referencia": "26473",
      "valor": 15.0
    },
    {
      "cd_acabamento": 115964,
      "cd_componente": 489655,
      "cd_orcamento_cliente": 510681,
      "cd_produto": 2046526,
      "cd_usuario_cadastro": 85263,
      "cd_usuario_modificacao": 85263,
      "codigo_montagem": 0,
      "comprimento": "150.00",
      "datahora_cadastro": "2024-10-16T07:46:16",
      "datahora_cancelamento": null,
      "datahora_modificacao": "2024-10-16T07:46:16",
      "espessura_altura": "50.00",
      "guid": null,
      "id": 59917299,
      "largura_profundidade": "150.00",
      "quantidade": 1,
      "referencia": "26485",
      "valor": 10.0
    },
    {
      "cd_acabamento": 115964,
      "cd_componente": 489657,
      "cd_orcamento_cliente": 510681,
      "cd_produto": 2046528,
      "cd_usuario_cadastro": 85263,
      "cd_usuario_modificacao": 85263,
      "codigo_montagem": 0,
      "comprimento": "150.00",
      "datahora_cadastro": "2024-10-16T07:46:16",
      "datahora_cancelamento": null,
      "datahora_modificacao": "2024-10-16T07:46:16",
      "espessura_altura": "50.00",
      "guid": null,
      "id": 59917335,
      "largura_profundidade": "150.00",
      "quantidade": 6,
      "referencia": "26487",
      "valor": 180.0
    },
    {
      "cd_acabamento": 115808,
      "cd_componente": 489315,
      "cd_orcamento_cliente": 510681,
      "cd_produto": 2046570,
      "cd_usuario_cadastro": 85263,
      "cd_usuario_modificacao": 85263,
      "codigo_montagem": 0,
      "comprimento": "2.000",
      "datahora_cadastro": "2024-10-16T07:46:16",
      "datahora_cancelamento": null,
      "datahora_modificacao": "2024-10-16T07:46:16",
      "espessura_altura": "53.000",
      "guid": null,
      "id": 59917315,
      "largura_profundidade": "35.000",
      "quantidade": 4,
      "referencia": "425683",
      "valor": 22.0
    },
    {
      "cd_acabamento": 115848,
      "cd_componente": 489543,
      "cd_orcamento_cliente": 510681,
      "cd_produto": 2047054,
      "cd_usuario_cadastro": 85263,
      "cd_usuario_modificacao": 85263,
      "codigo_montagem": 0,
      "comprimento": "40.00",
      "datahora_cadastro": "2024-10-16T07:46:16",
      "datahora_cancelamento": null,
      "datahora_modificacao": "2024-10-16T07:46:16",
      "espessura_altura": "700.0",
      "guid": null,
      "id": 59917330,
      "largura_profundidade": "550.00",
      "quantidade": 1,
      "referencia": "19551",
      "valor": 0.56
    },
    {
      "cd_acabamento": 115842,
      "cd_componente": 489543,
      "cd_orcamento_cliente": 510681,
      "cd_produto": 2047064,
      "cd_usuario_cadastro": 85263,
      "cd_usuario_modificacao": 85263,
      "codigo_montagem": 0,
      "comprimento": "60.00",
      "datahora_cadastro": "2024-10-16T07:46:16",
      "datahora_cancelamento": null,
      "datahora_modificacao": "2024-10-16T07:46:16",
      "espessura_altura": "900.0",
      "guid": null,
      "id": 59917331,
      "largura_profundidade": "352.000",
      "quantidade": 1,
      "referencia": "19552",
      "valor": 3.86
    },
    {
      "cd_acabamento": 115781,
      "cd_componente": 489548,
      "cd_orcamento_cliente": 510681,
      "cd_produto": 2046609,
      "cd_usuario_cadastro": 85263,
      "cd_usuario_modificacao": 85263,
      "codigo_montagem": 0,
      "comprimento": "150.00",
      "datahora_cadastro": "2024-10-16T07:46:16",
      "datahora_cancelamento": null,
      "datahora_modificacao": "2024-10-16T07:46:16",
      "espessura_altura": "50.00",
      "guid": null,
      "id": 59917323,
      "largura_profundidade": "150.00",
      "quantidade": 4,
      "referencia": "137674",
      "valor": 69.0
    },
    {
      "cd_acabamento": 115964,
      "cd_componente": 489890,
      "cd_orcamento_cliente": 510681,
      "cd_produto": 2046635,
      "cd_usuario_cadastro": 85263,
      "cd_usuario_modificacao": 85263,
      "codigo_montagem": 0,
      "comprimento": "840.00",
      "datahora_cadastro": "2024-10-16T07:46:16",
      "datahora_cancelamento": null,
      "datahora_modificacao": "2024-10-16T07:46:16",
      "espessura_altura": "10.00",
      "guid": null,
      "id": 59917327,
      "largura_profundidade": "258.000",
      "quantidade": 2,
      "referencia": "1981651",
      "valor": 0.0
    },
    {
      "cd_acabamento": 115964,
      "cd_componente": 489890,
      "cd_orcamento_cliente": 510681,
      "cd_produto": 2046635,
      "cd_usuario_cadastro": 85263,
      "cd_usuario_modificacao": 85263,
      "codigo_montagem": 0,
      "comprimento": "300.0",
      "datahora_cadastro": "2024-10-16T07:46:16",
      "datahora_cancelamento": null,
      "datahora_modificacao": "2024-10-16T07:46:16",
      "espessura_altura": "10.00",
      "guid": null,
      "id": 59917328,
      "largura_profundidade": "258.000",
      "quantidade": 2,
      "referencia": "1981651",
      "valor": 0.0
    },
    {
      "cd_acabamento": 115964,
      "cd_componente": 489890,
      "cd_orcamento_cliente": 510681,
      "cd_produto": 2046635,
      "cd_usuario_cadastro": 85263,
      "cd_usuario_modificacao": 85263,
      "codigo_montagem": 0,
      "comprimento": "213.000",
      "datahora_cadastro": "2024-10-16T07:46:16",
      "datahora_cancelamento": null,
      "datahora_modificacao": "2024-10-16T07:46:16",
      "espessura_altura": "10.00",
      "guid": null,
      "id": 59917326,
      "largura_profundidade": "258.000",
      "quantidade": 2,
      "referencia": "1981651",
      "valor": 0.0
    },
    {
      "cd_acabamento": 115964,
      "cd_componente": 489886,
      "cd_orcamento_cliente": 510681,
      "cd_produto": 2046635,
      "cd_usuario_cadastro": 85263,
      "cd_usuario_modificacao": 85263,
      "codigo_montagem": 0,
      "comprimento": "523.000",
      "datahora_cadastro": "2024-10-16T07:46:16",
      "datahora_cancelamento": null,
      "datahora_modificacao": "2024-10-16T07:46:16",
      "espessura_altura": "10.00",
      "guid": null,
      "id": 59917314,
      "largura_profundidade": "358.000",
      "quantidade": 1,
      "referencia": "1981651",
      "valor": 0.0
    },
    {
      "cd_acabamento": 115781,
      "cd_componente": 489898,
      "cd_orcamento_cliente": 510681,
      "cd_produto": 2049574,
      "cd_usuario_cadastro": 85263,
      "cd_usuario_modificacao": 85263,
      "codigo_montagem": 0,
      "comprimento": "900.0",
      "datahora_cadastro": "2024-10-16T07:46:16",
      "datahora_cancelamento": null,
      "datahora_modificacao": "2024-10-16T07:46:16",
      "espessura_altura": "19.000",
      "guid": null,
      "id": 59917306,
      "largura_profundidade": "350.00",
      "quantidade": 1,
      "referencia": "425684",
      "valor": 19.59
    },
    {
      "cd_acabamento": 115842,
      "cd_componente": 489898,
      "cd_orcamento_cliente": 510681,
      "cd_produto": 2049574,
      "cd_usuario_cadastro": 85263,
      "cd_usuario_modificacao": 85263,
      "codigo_montagem": 0,
      "comprimento": "937.000",
      "datahora_cadastro": "2024-10-16T07:46:16",
      "datahora_cancelamento": null,
      "datahora_modificacao": "2024-10-16T07:46:16",
      "espessura_altura": "19.000",
      "guid": null,
      "id": 59917310,
      "largura_profundidade": "350.00",
      "quantidade": 1,
      "referencia": "425684",
      "valor": 28.24
    },
    {
      "cd_acabamento": 115781,
      "cd_componente": 489884,
      "cd_orcamento_cliente": 510681,
      "cd_produto": 2049574,
      "cd_usuario_cadastro": 85263,
      "cd_usuario_modificacao": 85263,
      "codigo_montagem": 0,
      "comprimento": "863.000",
      "datahora_cadastro": "2024-10-16T07:46:16",
      "datahora_cancelamento": null,
      "datahora_modificacao": "2024-10-16T07:46:16",
      "espessura_altura": "19.000",
      "guid": null,
      "id": 59917312,
      "largura_profundidade": "343.000",
      "quantidade": 1,
      "referencia": "425684",
      "valor": 20.92
    },
    {
      "cd_acabamento": 115842,
      "cd_componente": 489906,
      "cd_orcamento_cliente": 510681,
      "cd_produto": 2049574,
      "cd_usuario_cadastro": 85263,
      "cd_usuario_modificacao": 85263,
      "codigo_montagem": 0,
      "comprimento": "700.0",
      "datahora_cadastro": "2024-10-16T07:46:16",
      "datahora_cancelamento": null,
      "datahora_modificacao": "2024-10-16T07:46:16",
      "espessura_altura": "19.000",
      "guid": null,
      "id": 59917322,
      "largura_profundidade": "450.00",
      "quantidade": 1,
      "referencia": "425684",
      "valor": 27.7
    },
    {
      "cd_acabamento": 115842,
      "cd_componente": 489906,
      "cd_orcamento_cliente": 510681,
      "cd_produto": 2049574,
      "cd_usuario_cadastro": 85263,
      "cd_usuario_modificacao": 85263,
      "codigo_montagem": 0,
      "comprimento": "700.0",
      "datahora_cadastro": "2024-10-16T07:46:16",
      "datahora_cancelamento": null,
      "datahora_modificacao": "2024-10-16T07:46:16",
      "espessura_altura": "19.000",
      "guid": null,
      "id": 59917320,
      "largura_profundidade": "450.00",
      "quantidade": 1,
      "referencia": "425684",
      "valor": 27.7
    },
    {
      "cd_acabamento": 115842,
      "cd_componente": 489898,
      "cd_orcamento_cliente": 510681,
      "cd_produto": 2049574,
      "cd_usuario_cadastro": 85263,
      "cd_usuario_modificacao": 85263,
      "codigo_montagem": 0,
      "comprimento": "937.000",
      "datahora_cadastro": "2024-10-16T07:46:16",
      "datahora_cancelamento": null,
      "datahora_modificacao": "2024-10-16T07:46:16",
      "espessura_altura": "19.000",
      "guid": null,
      "id": 59917303,
      "largura_profundidade": "350.00",
      "quantidade": 1,
      "referencia": "425684",
      "valor": 28.24
    },
    {
      "cd_acabamento": 115781,
      "cd_componente": 489898,
      "cd_orcamento_cliente": 510681,
      "cd_produto": 2049574,
      "cd_usuario_cadastro": 85263,
      "cd_usuario_modificacao": 85263,
      "codigo_montagem": 0,
      "comprimento": "900.0",
      "datahora_cadastro": "2024-10-16T07:46:16",
      "datahora_cancelamento": null,
      "datahora_modificacao": "2024-10-16T07:46:16",
      "espessura_altura": "19.000",
      "guid": null,
      "id": 59917308,
      "largura_profundidade": "350.00",
      "quantidade": 1,
      "referencia": "425684",
      "valor": 19.59
    },
    {
      "cd_acabamento": 115842,
      "cd_componente": 489898,
      "cd_orcamento_cliente": 510681,
      "cd_produto": 2049586,
      "cd_usuario_cadastro": 85263,
      "cd_usuario_modificacao": 85263,
      "codigo_montagem": 0,
      "comprimento": "900.0",
      "datahora_cadastro": "2024-10-16T07:46:16",
      "datahora_cancelamento": null,
      "datahora_modificacao": "2024-10-16T07:46:16",
      "espessura_altura": "6.000",
      "guid": null,
      "id": 59917302,
      "largura_profundidade": "213.000",
      "quantidade": 1,
      "referencia": "425686",
      "valor": 8.12
    }
  ]
}